{
    "openapi": "3.0.0",
    "info": {
      "description": "sean",
      "version": "1.0.0",
      "title": "Seans-Python3-Flask-Rest-Boilerplate",
      "contact": {
        "email": "seanwasere@gmail.com"
      },
      "license": {
        "name": "MIT",
        "url": "https://opensource.org/licenses/MIT"
      }
    }
  }
